(module R_Axial_DIN0207_L6.3mm_D2.5mm_P10.16mm_Horizontal (layer F.Cu) (tedit 5BA8BEC4)
  (descr "Resistor, Axial_DIN0207 series, Axial, Horizontal, pin pitch=10.16mm, 0.25W = 1/4W, length*diameter=6.3*2.5mm^2, http://cdn-reichelt.de/documents/datenblatt/B400/1_4W%23YAG.pdf")
  (tags "Resistor Axial_DIN0207 series Axial Horizontal pin pitch 10.16mm 0.25W = 1/4W length 6.3mm diameter 2.5mm")
  (fp_text reference R21 (at 5.08 -2.305) (layer F.SilkS)
    (effects (font (size 1 1) (thickness 0.15)))
  )
  (fp_text value R (at 5.08 2.37) (layer F.Fab)
    (effects (font (size 1 1) (thickness 0.15)))
  )
  (fp_text user %R (at 5.646 0.997) (layer F.Fab)
    (effects (font (size 1 1) (thickness 0.15)))
  )
  (fp_line (start 11.25 -1.65) (end -1.05 -1.65) (layer F.CrtYd) (width 0.05))
  (fp_line (start 11.25 1.65) (end 11.25 -1.65) (layer F.CrtYd) (width 0.05))
  (fp_line (start -1.05 1.65) (end 11.25 1.65) (layer F.CrtYd) (width 0.05))
  (fp_line (start -1.05 -1.65) (end -1.05 1.65) (layer F.CrtYd) (width 0.05))
  (fp_line (start 9.12 0) (end 8.35 0) (layer F.SilkS) (width 0.12))
  (fp_line (start 1.04 0) (end 1.81 0) (layer F.SilkS) (width 0.12))
  (fp_line (start 8.35 -1.37) (end 1.81 -1.37) (layer F.SilkS) (width 0.12))
  (fp_line (start 8.35 1.37) (end 8.35 -1.37) (layer F.SilkS) (width 0.12))
  (fp_line (start 1.81 1.37) (end 8.35 1.37) (layer F.SilkS) (width 0.12))
  (fp_line (start 1.81 -1.37) (end 1.81 1.37) (layer F.SilkS) (width 0.12))
  (fp_line (start 10.16 0) (end 8.23 0) (layer F.Fab) (width 0.1))
  (fp_line (start 0 0) (end 1.93 0) (layer F.Fab) (width 0.1))
  (fp_line (start 8.23 -1.25) (end 1.93 -1.25) (layer F.Fab) (width 0.1))
  (fp_line (start 8.23 1.25) (end 8.23 -1.25) (layer F.Fab) (width 0.1))
  (fp_line (start 1.93 1.25) (end 8.23 1.25) (layer F.Fab) (width 0.1))
  (fp_line (start 1.93 -1.25) (end 1.93 1.25) (layer F.Fab) (width 0.1))
  (pad 2 thru_hole oval (at 10.16 0) (size 2.4 1.8) (drill 0.8) (layers *.Cu *.Mask))
  (pad 1 thru_hole oval (at 0 0) (size 2.4 1.8) (drill 0.8) (layers *.Cu *.Mask))
  (model ${KISYS3DMOD}/Resistor_THT.3dshapes/R_Axial_DIN0207_L6.3mm_D2.5mm_P10.16mm_Horizontal.wrl
    (at (xyz 0 0 0))
    (scale (xyz 1 1 1))
    (rotate (xyz 0 0 0))
  )
)
