(module SD_PinHeader_1x06_P2.54mm_Vertical (layer F.Cu) (tedit 5BB5C022)
  (descr "Through hole straight pin header, 1x06, 2.54mm pitch, single row")
  (tags "Through hole pin header THT 1x06 2.54mm single row")
  (fp_text reference Mod4 (at -0.254 17.399) (layer F.SilkS)
    (effects (font (size 1 1) (thickness 0.15)))
  )
  (fp_text value SD_CARD (at -8.5 7.1 -180) (layer F.Fab)
    (effects (font (size 1 1) (thickness 0.15)))
  )
  (fp_line (start -17 0) (end -17 13.5) (layer F.SilkS) (width 0.1))
  (fp_line (start -19.5 13.5) (end -19.5 0) (layer F.SilkS) (width 0.1))
  (fp_line (start -19.5 0) (end -7.5 0) (layer F.SilkS) (width 0.1))
  (fp_line (start -7.5 13.5) (end -7.5 0) (layer F.SilkS) (width 0.1))
  (fp_line (start -19.5 13.5) (end -7.5 13.5) (layer F.SilkS) (width 0.1))
  (fp_text user %R (at 0 6.35 90) (layer F.Fab)
    (effects (font (size 1 1) (thickness 0.15)))
  )
  (fp_line (start 1.8 -1.8) (end -1.8 -1.8) (layer F.CrtYd) (width 0.05))
  (fp_line (start 1.8 14.5) (end 1.8 -1.8) (layer F.CrtYd) (width 0.05))
  (fp_line (start -1.8 14.5) (end 1.8 14.5) (layer F.CrtYd) (width 0.05))
  (fp_line (start -1.8 -1.8) (end -1.8 14.5) (layer F.CrtYd) (width 0.05))
  (fp_line (start -1.33 -1.33) (end 0 -1.33) (layer F.SilkS) (width 0.12))
  (fp_line (start -1.33 0) (end -1.33 -1.33) (layer F.SilkS) (width 0.12))
  (fp_line (start -1.33 1.27) (end 1.33 1.27) (layer F.SilkS) (width 0.12))
  (fp_line (start 1.33 1.27) (end 1.33 14.03) (layer F.SilkS) (width 0.12))
  (fp_line (start -1.33 1.27) (end -1.33 14.03) (layer F.SilkS) (width 0.12))
  (fp_line (start -1.33 14.03) (end 1.33 14.03) (layer F.SilkS) (width 0.12))
  (fp_line (start -1.27 -0.635) (end -0.635 -1.27) (layer F.Fab) (width 0.1))
  (fp_line (start -1.27 13.97) (end -1.27 -0.635) (layer F.Fab) (width 0.1))
  (fp_line (start 1.27 13.97) (end -1.27 13.97) (layer F.Fab) (width 0.1))
  (fp_line (start 1.27 -1.27) (end 1.27 13.97) (layer F.Fab) (width 0.1))
  (fp_line (start -0.635 -1.27) (end 1.27 -1.27) (layer F.Fab) (width 0.1))
  (fp_line (start -16.94 -2.8) (end 1.46 -2.8) (layer F.SilkS) (width 0.15))
  (fp_line (start 1.46 16.6) (end 1.46 -2.8) (layer F.SilkS) (width 0.15))
  (fp_line (start -16.94 16.6) (end 1.46 16.6) (layer F.SilkS) (width 0.15))
  (fp_line (start -16.94 16.6) (end -16.94 -2.8) (layer F.SilkS) (width 0.15))
  (fp_circle (center -2.7 15.1) (end -1.7 15.2) (layer F.SilkS) (width 0.1))
  (fp_circle (center -2.8 -1.3) (end -1.8 -1.3) (layer F.SilkS) (width 0.1))
  (pad 6 thru_hole oval (at 0 12.7) (size 2.4 1.8) (drill 1) (layers *.Cu *.Mask))
  (pad 5 thru_hole oval (at 0 10.16) (size 2.4 1.8) (drill 1) (layers *.Cu *.Mask))
  (pad 4 thru_hole oval (at 0 7.62) (size 2.4 1.8) (drill 1) (layers *.Cu *.Mask))
  (pad 3 thru_hole oval (at 0 5.08) (size 2.4 1.8) (drill 1) (layers *.Cu *.Mask))
  (pad 2 thru_hole oval (at 0 2.54) (size 2.4 1.8) (drill 1) (layers *.Cu *.Mask))
  (pad 1 thru_hole rect (at 0 0) (size 2 2) (drill 1) (layers *.Cu *.Mask))
  (pad 7 thru_hole circle (at -2.8 -1.3) (size 2 2) (drill 2) (layers *.Cu *.Mask))
  (pad 8 thru_hole circle (at -2.69 15.1) (size 2 2) (drill 2) (layers *.Cu *.Mask))
  (model ${KISYS3DMOD}/Connector_PinHeader_2.54mm.3dshapes/PinHeader_1x06_P2.54mm_Vertical.wrl
    (at (xyz 0 0 0))
    (scale (xyz 1 1 1))
    (rotate (xyz 0 0 0))
  )
)
