EESchema Schematic File Version 4
EELAYER 30 0
EELAYER END
$Descr A4 11693 8268
encoding utf-8
Sheet 2 6
Title "Anemometer function"
Date "2020-02-21"
Rev "2.1.1"
Comp "ALEEA"
Comment1 "LONGUET Gilles"
Comment2 "AGPLv3"
Comment3 ""
Comment4 ""
$EndDescr
Text HLabel 2600 2550 0    60   Input ~ 0
Wind1
Text HLabel 2500 5500 0    60   Input ~ 0
Wind2
$Comp
L shield-rescue:R-RESCUE-Windlogger-shield-rescue R3
U 1 1 56137C0A
P 3750 4850
F 0 "R3" V 3830 4850 40  0000 C CNN
F 1 "100k" V 3757 4851 40  0000 C CNN
F 2 "windlog:R_Axial_DIN0207_L6.3mm_D2.5mm_P10.16mm_Horizontal" V 3680 4850 30  0001 C CNN
F 3 "~" H 3750 4850 30  0000 C CNN
F 4 "0.125W" V 3750 4850 60  0001 C CNN "Puissance"
F 5 "1%" V 3750 4850 60  0001 C CNN "Tolerance"
	1    3750 4850
	-1   0    0    1   
$EndComp
Wire Wire Line
	2500 5500 3650 5500
Wire Wire Line
	6450 5025 6450 5100
Wire Wire Line
	6450 5700 6450 5750
Wire Wire Line
	6850 5400 7250 5400
$Comp
L shield-rescue:R-RESCUE-Windlogger-shield-rescue R8
U 1 1 56137DBB
P 5950 6425
F 0 "R8" V 6030 6425 40  0000 C CNN
F 1 "1k" V 5957 6426 40  0000 C CNN
F 2 "windlog:R_Axial_DIN0207_L6.3mm_D2.5mm_P10.16mm_Horizontal" V 5880 6425 30  0001 C CNN
F 3 "~" H 5950 6425 30  0000 C CNN
F 4 "0.125W" V 5950 6425 60  0001 C CNN "Puissance"
F 5 "1%" V 5950 6425 60  0001 C CNN "Tolerance"
	1    5950 6425
	1    0    0    -1  
$EndComp
$Comp
L shield-rescue:R-RESCUE-Windlogger-shield-rescue R10
U 1 1 56137DCA
P 6450 6075
F 0 "R10" V 6530 6075 40  0000 C CNN
F 1 "100k" V 6457 6076 40  0000 C CNN
F 2 "windlog:R_Axial_DIN0207_L6.3mm_D2.5mm_P10.16mm_Horizontal" V 6380 6075 30  0001 C CNN
F 3 "~" H 6450 6075 30  0000 C CNN
F 4 "0.125W" V 6450 6075 60  0001 C CNN "Puissance"
F 5 "1%" V 6450 6075 60  0001 C CNN "Tolerance"
	1    6450 6075
	0    -1   -1   0   
$EndComp
Wire Wire Line
	5950 5300 6250 5300
Wire Wire Line
	5950 5300 5950 6075
Wire Wire Line
	5950 6675 5950 6750
Wire Wire Line
	6200 6075 5950 6075
Connection ~ 5950 6075
Wire Wire Line
	6700 6075 7250 6075
Wire Wire Line
	7250 6075 7250 5400
Connection ~ 7250 5400
Text HLabel 7750 5400 2    60   Output ~ 0
Speed2
$Comp
L shield-rescue:C-RESCUE-Windlogger-shield-rescue C5
U 1 1 56137EA0
P 8700 4300
F 0 "C5" H 8700 4400 40  0000 L CNN
F 1 "100nF" H 8706 4215 40  0000 L CNN
F 2 "windlog:C_Rect_L7.0mm_W2.5mm_P5.00mm" H 8738 4150 30  0001 C CNN
F 3 "~" H 8700 4300 60  0000 C CNN
F 4 "25V" H 8700 4300 60  0001 C CNN "Tension"
	1    8700 4300
	1    0    0    -1  
$EndComp
Wire Wire Line
	8700 3950 8700 4100
Wire Wire Line
	8700 4500 8700 4650
$Comp
L shield-rescue:JUMPER3-shield-rescue JP1
U 1 1 5614E160
P 3700 2550
F 0 "JP1" H 3750 2450 40  0000 L CNN
F 1 "JUMPER" H 3700 2650 40  0000 C CNN
F 2 "windlog:PinSocket_1x03_P2.54mm_Vertical" H 3700 2550 60  0001 C CNN
F 3 "~" H 3700 2550 60  0000 C CNN
	1    3700 2550
	0    1    1    0   
$EndComp
Connection ~ 7150 2450
Wire Wire Line
	7150 3175 7150 2450
Wire Wire Line
	6525 3175 7150 3175
Connection ~ 5750 3175
Wire Wire Line
	5750 3175 6025 3175
Wire Wire Line
	5750 3775 5750 3825
Wire Wire Line
	5750 2350 5750 3175
Wire Wire Line
	5750 2350 6050 2350
Wire Wire Line
	6650 2450 7150 2450
Wire Wire Line
	6250 2750 6250 2825
Wire Wire Line
	6250 2100 6250 2150
Wire Wire Line
	5300 3100 5300 3150
Wire Wire Line
	5300 2450 5300 2550
Wire Wire Line
	5300 2100 5300 2150
Wire Wire Line
	2600 2550 3600 2550
Text HLabel 7650 2450 2    60   Output ~ 0
Speed1
$Comp
L shield-rescue:R-RESCUE-Windlogger-shield-rescue R9
U 1 1 56137926
P 6275 3175
F 0 "R9" V 6355 3175 40  0000 C CNN
F 1 "100k" V 6282 3176 40  0000 C CNN
F 2 "windlog:R_Axial_DIN0207_L6.3mm_D2.5mm_P10.16mm_Horizontal" V 6205 3175 30  0001 C CNN
F 3 "~" H 6275 3175 30  0000 C CNN
F 4 "0.125W" V 6275 3175 60  0001 C CNN "Puissance"
F 5 "1%" V 6275 3175 60  0001 C CNN "Tolerance"
	1    6275 3175
	0    -1   -1   0   
$EndComp
$Comp
L shield-rescue:R-RESCUE-Windlogger-shield-rescue R7
U 1 1 5613790D
P 5750 3525
F 0 "R7" V 5830 3525 40  0000 C CNN
F 1 "1k" V 5757 3526 40  0000 C CNN
F 2 "windlog:R_Axial_DIN0207_L6.3mm_D2.5mm_P10.16mm_Horizontal" V 5680 3525 30  0001 C CNN
F 3 "~" H 5750 3525 30  0000 C CNN
F 4 "0.125W" V 5750 3525 60  0001 C CNN "Puissance"
F 5 "1%" V 5750 3525 60  0001 C CNN "Tolerance"
	1    5750 3525
	1    0    0    -1  
$EndComp
$Comp
L shield-rescue:C-RESCUE-Windlogger-shield-rescue C3
U 1 1 561373CB
P 4350 1800
F 0 "C3" H 4350 1900 40  0000 L CNN
F 1 "100nF" H 4356 1715 40  0000 L CNN
F 2 "windlog:C_Rect_L7.0mm_W2.5mm_P5.00mm" H 4200 1700 30  0001 C CNN
F 3 "~" H 4350 1800 60  0000 C CNN
F 4 "25V" H 4350 1800 60  0001 C CNN "Tension"
	1    4350 1800
	1    0    0    -1  
$EndComp
$Comp
L shield-rescue:R-RESCUE-Windlogger-shield-rescue R1
U 1 1 561373BC
P 3700 1900
F 0 "R1" V 3780 1900 40  0000 C CNN
F 1 "100k" V 3707 1901 40  0000 C CNN
F 2 "windlog:R_Axial_DIN0207_L6.3mm_D2.5mm_P10.16mm_Horizontal" V 3630 1900 30  0001 C CNN
F 3 "~" H 3700 1900 30  0000 C CNN
F 4 "0.125W" V 3700 1900 60  0001 C CNN "Puissance"
F 5 "1%" V 3700 1900 60  0001 C CNN "Tolerance"
	1    3700 1900
	-1   0    0    1   
$EndComp
$Comp
L shield-rescue:JUMPER3-shield-rescue JP3
U 1 1 5614E3FA
P 4950 2550
F 0 "JP3" H 5000 2450 40  0000 L CNN
F 1 "JUMPER" H 4950 2650 40  0000 C CNN
F 2 "windlog:PinSocket_1x03_P2.54mm_Vertical" H 4950 2550 60  0001 C CNN
F 3 "~" H 4950 2550 60  0000 C CNN
	1    4950 2550
	0    -1   1    0   
$EndComp
Wire Wire Line
	3700 1500 4350 1500
$Comp
L shield-rescue:R-RESCUE-Windlogger-shield-rescue R5
U 1 1 5614E4FA
P 4350 3250
F 0 "R5" V 4430 3250 40  0000 C CNN
F 1 "10k" V 4357 3251 40  0000 C CNN
F 2 "windlog:R_Axial_DIN0207_L6.3mm_D2.5mm_P10.16mm_Horizontal" V 4280 3250 30  0001 C CNN
F 3 "~" H 4350 3250 30  0000 C CNN
F 4 "0.125W" V 4350 3250 60  0001 C CNN "Puissance"
F 5 "1%" V 4350 3250 60  0001 C CNN "Tolerance"
	1    4350 3250
	1    0    0    -1  
$EndComp
Wire Wire Line
	4350 2700 4350 3000
Wire Wire Line
	3700 3550 4350 3550
Wire Wire Line
	4950 1500 4950 2300
Wire Wire Line
	4950 3550 4950 2800
Wire Wire Line
	5050 2550 5300 2550
$Comp
L shield-rescue:JUMPER3-shield-rescue JP2
U 1 1 5614E6D4
P 3750 5500
F 0 "JP2" H 3800 5400 40  0000 L CNN
F 1 "JUMPER" H 3750 5600 40  0000 C CNN
F 2 "windlog:PinSocket_1x03_P2.54mm_Vertical" H 3750 5500 60  0001 C CNN
F 3 "~" H 3750 5500 60  0000 C CNN
	1    3750 5500
	0    1    1    0   
$EndComp
Wire Wire Line
	5300 5400 5300 5500
Wire Wire Line
	5300 5050 5300 5100
Wire Wire Line
	4400 5025 4400 5100
Wire Wire Line
	4400 4450 4400 4625
$Comp
L shield-rescue:C-RESCUE-Windlogger-shield-rescue C4
U 1 1 5614E6FE
P 4400 4825
F 0 "C4" H 4400 4925 40  0000 L CNN
F 1 "100nF" H 4406 4740 40  0000 L CNN
F 2 "windlog:C_Rect_L7.0mm_W2.5mm_P5.00mm" H 4438 4675 30  0001 C CNN
F 3 "~" H 4400 4825 60  0000 C CNN
F 4 "25V" H 4400 4825 60  0001 C CNN "Tension"
	1    4400 4825
	1    0    0    -1  
$EndComp
$Comp
L shield-rescue:JUMPER3-shield-rescue JP4
U 1 1 5614E704
P 5000 5500
F 0 "JP4" H 5050 5400 40  0000 L CNN
F 1 "JUMPER" H 5000 5600 40  0000 C CNN
F 2 "windlog:PinSocket_1x03_P2.54mm_Vertical" H 5000 5500 60  0001 C CNN
F 3 "~" H 5000 5500 60  0000 C CNN
	1    5000 5500
	0    -1   1    0   
$EndComp
Wire Wire Line
	3750 4450 4400 4450
Connection ~ 4400 4450
$Comp
L shield-rescue:R-RESCUE-Windlogger-shield-rescue R6
U 1 1 5614E70E
P 4400 6300
F 0 "R6" V 4480 6300 40  0000 C CNN
F 1 "10k" V 4407 6301 40  0000 C CNN
F 2 "windlog:R_Axial_DIN0207_L6.3mm_D2.5mm_P10.16mm_Horizontal" V 4330 6300 30  0001 C CNN
F 3 "~" H 4400 6300 30  0000 C CNN
F 4 "0.125W" V 4400 6300 60  0001 C CNN "Puissance"
F 5 "1%" V 4400 6300 60  0001 C CNN "Tolerance"
	1    4400 6300
	1    0    0    -1  
$EndComp
Wire Wire Line
	4400 5650 4400 6050
Wire Wire Line
	3750 6600 4400 6600
Wire Wire Line
	5000 4450 5000 5250
Wire Wire Line
	5000 6600 5000 5750
Wire Wire Line
	5100 5500 5300 5500
Text Notes 2875 1950 0    60   ~ 0
Effet Hall way
Text Notes 2875 3150 0    60   ~ 0
ILS way
Text Notes 2900 4850 0    60   ~ 0
Effet Hall way
Text Notes 3150 6250 0    60   ~ 0
ILS way
Connection ~ 5300 2550
Wire Wire Line
	4350 3500 4350 3550
Connection ~ 4350 3550
Connection ~ 5300 5500
Wire Wire Line
	4400 6550 4400 6600
Connection ~ 4400 6600
Wire Wire Line
	4350 1600 4350 1500
Connection ~ 4350 1500
Wire Wire Line
	3700 1500 3700 1650
Wire Wire Line
	3700 2300 3700 2150
$Comp
L shield-rescue:R-RESCUE-Windlogger-shield-rescue R4
U 1 1 561FBD15
P 3750 6150
F 0 "R4" V 3830 6150 40  0000 C CNN
F 1 "100" V 3757 6151 40  0000 C CNN
F 2 "windlog:R_Axial_DIN0207_L6.3mm_D2.5mm_P10.16mm_Horizontal" V 3680 6150 30  0001 C CNN
F 3 "~" H 3750 6150 30  0000 C CNN
	1    3750 6150
	1    0    0    -1  
$EndComp
Wire Wire Line
	3750 4450 3750 4600
Wire Wire Line
	3750 5250 3750 5100
Wire Wire Line
	3750 5900 3750 5750
Wire Wire Line
	3750 6400 3750 6600
Text Notes 2975 1300 0    60   ~ 0
On this card it's possible to plug 2 anemometers.\nFor each, with 2 jumpers, select the good way : hall effect anemometer or ILS/open colector anemometers.
$Comp
L shield-rescue:+5V-power1 #PWR027
U 1 1 573BF186
P 6250 2100
F 0 "#PWR027" H 6250 1950 50  0001 C CNN
F 1 "+5V" H 6250 2240 50  0000 C CNN
F 2 "" H 6250 2100 50  0000 C CNN
F 3 "" H 6250 2100 50  0000 C CNN
	1    6250 2100
	1    0    0    -1  
$EndComp
$Comp
L shield-rescue:+5V-power1 #PWR021
U 1 1 573BF253
P 5300 2100
F 0 "#PWR021" H 5300 1950 50  0001 C CNN
F 1 "+5V" H 5300 2240 50  0000 C CNN
F 2 "" H 5300 2100 50  0000 C CNN
F 3 "" H 5300 2100 50  0000 C CNN
	1    5300 2100
	1    0    0    -1  
$EndComp
$Comp
L shield-rescue:+5V-power1 #PWR031
U 1 1 573BF2DB
P 8700 3950
F 0 "#PWR031" H 8700 3800 50  0001 C CNN
F 1 "+5V" H 8700 4090 50  0000 C CNN
F 2 "" H 8700 3950 50  0000 C CNN
F 3 "" H 8700 3950 50  0000 C CNN
	1    8700 3950
	1    0    0    -1  
$EndComp
$Comp
L shield-rescue:+5V-power1 #PWR029
U 1 1 573BF3D6
P 6450 5025
F 0 "#PWR029" H 6450 4875 50  0001 C CNN
F 1 "+5V" H 6450 5165 50  0000 C CNN
F 2 "" H 6450 5025 50  0000 C CNN
F 3 "" H 6450 5025 50  0000 C CNN
	1    6450 5025
	1    0    0    -1  
$EndComp
$Comp
L shield-rescue:+5V-power1 #PWR023
U 1 1 573BF430
P 5300 5050
F 0 "#PWR023" H 5300 4900 50  0001 C CNN
F 1 "+5V" H 5300 5190 50  0000 C CNN
F 2 "" H 5300 5050 50  0000 C CNN
F 3 "" H 5300 5050 50  0000 C CNN
	1    5300 5050
	1    0    0    -1  
$EndComp
$Comp
L shield-rescue:+5V-power1 #PWR018
U 1 1 573D0A19
P 4350 2700
F 0 "#PWR018" H 4350 2550 50  0001 C CNN
F 1 "+5V" H 4350 2840 50  0000 C CNN
F 2 "" H 4350 2700 50  0000 C CNN
F 3 "" H 4350 2700 50  0000 C CNN
	1    4350 2700
	1    0    0    -1  
$EndComp
$Comp
L shield-rescue:+5V-power1 #PWR020
U 1 1 573D0B73
P 4400 5650
F 0 "#PWR020" H 4400 5500 50  0001 C CNN
F 1 "+5V" H 4400 5790 50  0000 C CNN
F 2 "" H 4400 5650 50  0000 C CNN
F 3 "" H 4400 5650 50  0000 C CNN
	1    4400 5650
	1    0    0    -1  
$EndComp
$Comp
L shield-rescue:GND-power1 #PWR017
U 1 1 580451A7
P 4350 2100
F 0 "#PWR017" H 4350 1850 50  0001 C CNN
F 1 "GND" H 4350 1950 50  0000 C CNN
F 2 "" H 4350 2100 50  0000 C CNN
F 3 "" H 4350 2100 50  0000 C CNN
	1    4350 2100
	1    0    0    -1  
$EndComp
Wire Wire Line
	4350 2100 4350 2000
$Comp
L shield-rescue:GND-power1 #PWR022
U 1 1 580452CE
P 5300 3150
F 0 "#PWR022" H 5300 2900 50  0001 C CNN
F 1 "GND" H 5300 3000 50  0000 C CNN
F 2 "" H 5300 3150 50  0000 C CNN
F 3 "" H 5300 3150 50  0000 C CNN
	1    5300 3150
	1    0    0    -1  
$EndComp
$Comp
L shield-rescue:D-shield-rescue D2
U 1 1 5804534E
P 5300 2950
F 0 "D2" H 5300 3050 50  0000 C CNN
F 1 "1N4148" H 5300 2850 50  0000 C CNN
F 2 "windlog:D_DO-35_SOD27_P7.62mm_Horizontal" H 5300 2950 50  0001 C CNN
F 3 "" H 5300 2950 50  0000 C CNN
	1    5300 2950
	0    1    1    0   
$EndComp
$Comp
L shield-rescue:D-shield-rescue D1
U 1 1 5804543A
P 5300 2300
F 0 "D1" H 5300 2400 50  0000 C CNN
F 1 "1N4148" H 5300 2200 50  0000 C CNN
F 2 "windlog:D_DO-35_SOD27_P7.62mm_Horizontal" H 5300 2300 50  0001 C CNN
F 3 "" H 5300 2300 50  0000 C CNN
	1    5300 2300
	0    1    1    0   
$EndComp
$Comp
L shield-rescue:GND-power1 #PWR028
U 1 1 580454EB
P 6250 2825
F 0 "#PWR028" H 6250 2575 50  0001 C CNN
F 1 "GND" H 6250 2675 50  0000 C CNN
F 2 "" H 6250 2825 50  0000 C CNN
F 3 "" H 6250 2825 50  0000 C CNN
	1    6250 2825
	1    0    0    -1  
$EndComp
$Comp
L shield-rescue:GND-power1 #PWR025
U 1 1 580455C6
P 5750 3825
F 0 "#PWR025" H 5750 3575 50  0001 C CNN
F 1 "GND" H 5750 3675 50  0000 C CNN
F 2 "" H 5750 3825 50  0000 C CNN
F 3 "" H 5750 3825 50  0000 C CNN
	1    5750 3825
	1    0    0    -1  
$EndComp
$Comp
L shield-rescue:GND-power1 #PWR032
U 1 1 580456B7
P 8700 4650
F 0 "#PWR032" H 8700 4400 50  0001 C CNN
F 1 "GND" H 8700 4500 50  0000 C CNN
F 2 "" H 8700 4650 50  0000 C CNN
F 3 "" H 8700 4650 50  0000 C CNN
	1    8700 4650
	1    0    0    -1  
$EndComp
$Comp
L shield-rescue:GND-power1 #PWR019
U 1 1 58045842
P 4400 5100
F 0 "#PWR019" H 4400 4850 50  0001 C CNN
F 1 "GND" H 4400 4950 50  0000 C CNN
F 2 "" H 4400 5100 50  0000 C CNN
F 3 "" H 4400 5100 50  0000 C CNN
	1    4400 5100
	1    0    0    -1  
$EndComp
$Comp
L shield-rescue:D-shield-rescue D3
U 1 1 5804593D
P 5300 5250
F 0 "D3" H 5300 5350 50  0000 C CNN
F 1 "1N4148" H 5300 5150 50  0000 C CNN
F 2 "windlog:D_DO-35_SOD27_P7.62mm_Horizontal" H 5300 5250 50  0001 C CNN
F 3 "" H 5300 5250 50  0000 C CNN
	1    5300 5250
	0    1    1    0   
$EndComp
$Comp
L shield-rescue:D-shield-rescue D4
U 1 1 580459AE
P 5300 5950
F 0 "D4" H 5300 6050 50  0000 C CNN
F 1 "1N4148" H 5300 5850 50  0000 C CNN
F 2 "windlog:D_DO-35_SOD27_P7.62mm_Horizontal" H 5300 5950 50  0001 C CNN
F 3 "" H 5300 5950 50  0000 C CNN
	1    5300 5950
	0    1    1    0   
$EndComp
$Comp
L shield-rescue:GND-power1 #PWR024
U 1 1 58045A5A
P 5300 6175
F 0 "#PWR024" H 5300 5925 50  0001 C CNN
F 1 "GND" H 5300 6025 50  0000 C CNN
F 2 "" H 5300 6175 50  0000 C CNN
F 3 "" H 5300 6175 50  0000 C CNN
	1    5300 6175
	1    0    0    -1  
$EndComp
Wire Wire Line
	5300 6175 5300 6100
$Comp
L shield-rescue:GND-power1 #PWR026
U 1 1 58045C8B
P 5950 6750
F 0 "#PWR026" H 5950 6500 50  0001 C CNN
F 1 "GND" H 5950 6600 50  0000 C CNN
F 2 "" H 5950 6750 50  0000 C CNN
F 3 "" H 5950 6750 50  0000 C CNN
	1    5950 6750
	1    0    0    -1  
$EndComp
$Comp
L shield-rescue:GND-power1 #PWR030
U 1 1 58045CF8
P 6450 5750
F 0 "#PWR030" H 6450 5500 50  0001 C CNN
F 1 "GND" H 6450 5600 50  0000 C CNN
F 2 "" H 6450 5750 50  0000 C CNN
F 3 "" H 6450 5750 50  0000 C CNN
	1    6450 5750
	1    0    0    -1  
$EndComp
$Comp
L shield-rescue:MCP6004-shield-rescue U1
U 1 1 5859323A
P 6350 2450
F 0 "U1" H 6400 2650 50  0000 C CNN
F 1 "MCP6244" H 6500 2250 50  0000 C CNN
F 2 "Package_DIP:DIP-14_W7.62mm_LongPads" H 6300 2550 50  0001 C CNN
F 3 "" H 6400 2650 50  0000 C CNN
	1    6350 2450
	1    0    0    -1  
$EndComp
$Comp
L shield-rescue:MCP6004-shield-rescue U1
U 2 1 5859363F
P 6550 5400
F 0 "U1" H 6600 5600 50  0000 C CNN
F 1 "MCP6244" H 6700 5200 50  0000 C CNN
F 2 "Package_DIP:DIP-14_W7.62mm_LongPads" H 6500 5500 50  0001 C CNN
F 3 "" H 6600 5600 50  0000 C CNN
	2    6550 5400
	1    0    0    -1  
$EndComp
$Comp
L shield-rescue:R-shield-rescue R2
U 1 1 586404E9
P 3700 3100
F 0 "R2" V 3780 3100 50  0000 C CNN
F 1 "100" V 3700 3100 50  0000 C CNN
F 2 "windlog:R_Axial_DIN0207_L6.3mm_D2.5mm_P10.16mm_Horizontal" V 3630 3100 50  0001 C CNN
F 3 "" H 3700 3100 50  0000 C CNN
	1    3700 3100
	1    0    0    -1  
$EndComp
Wire Wire Line
	3700 2800 3700 2950
Wire Wire Line
	3700 3250 3700 3550
Wire Wire Line
	5950 6075 5950 6175
Wire Wire Line
	7250 5400 7750 5400
Wire Wire Line
	7150 2450 7650 2450
Wire Wire Line
	5750 3175 5750 3275
Wire Wire Line
	4400 4450 5000 4450
Wire Wire Line
	5300 2550 5300 2800
Wire Wire Line
	5300 2550 6050 2550
Wire Wire Line
	4350 3550 4950 3550
Wire Wire Line
	5300 5500 5300 5800
Wire Wire Line
	5300 5500 6250 5500
Wire Wire Line
	4400 6600 5000 6600
Wire Wire Line
	4350 1500 4950 1500
$EndSCHEMATC
